…
[77] "list(Condition=c('Heat','Cold'))"                                                                                                             
[78] "list(Condition=c('Heat','Cold'))"                                                                                                             
[79] "list(Condition=c('Help','Harm'))"                                                                                                             
[80] "list(Condition=c('Praise','Blame'))"                                                                                                          
[81] "list(CounterBalance=c('SimilarityA','SimilarityB'))"                                                                                          
[82] "list(CounterBalance=c('SimilarityA','SimilarityB'))"                                                                                          
[83] "list(CounterBalance=c('SimilarityA','SimilarityB'))"                                                                                          
[84] "list(CounterBalance=c('SimilarityA','SimilarityB'))"                                                                                          
[85] "list(CounterBalance=c('DifferenceA','DifferenceB'))"                                                                                          
[86] "list(CounterBalance=c('DifferenceA','DifferenceB'))"                                                                                          
[87] "list(CounterBalance=c('DifferenceA','DifferenceB'))"                                                                                          
[88] "list(CounterBalance=c('DifferenceA','DifferenceB'))"                                                                                          
[89] "list(CounterBalance=c('SimilarityA','SimilarityB'), Order=c('gatiBEFOREnore','gatiAFTERnore'))"                                               
[90] "list(CounterBalance=c('DifferenceA','DifferenceB'), Order=c('gatiBEFOREnore','gatiAFTERnore'))"                                               
# A tibble: 90 x 52
   unique.id study.id study.slate study.name study.analysis study.vars study.vars.labe… study.cases.inc… study.sites.inc… study.global.in… study.primary.i… study.secondary… study.figure2.i…
       <int>    <int>       <int> <chr>      <chr>          <chr>      <chr>            <chr>            <chr>                       <int>            <int>            <int>            <int>
 1         1        1           1 Huang      Huang.1        list(High… list(Condition=… list(each=c('Co… list(c('all'))                  1                0                1                1
 2         2        1           1 Huang      Huang.2        list(High… list(Condition=… list(each=rbind… list(c('all'))                  1                1                0                0
 3         3        1           1 Huang      Huang.3        list(High… list(Condition=… list(each=c('Co… "list(c('Source…                1                0                1                0
 4         4        1           1 Huang      Huang.4        list(High… list(Condition=… list(each=c('Co… "list(c('Countr…                1                0                1                0
 5         5        1           1 Huang      Huang.5        list(High… list(Condition=… list(each=rbind… "list(c('Tablet…                1                0                1                0
 6         6        1           1 Huang      Huang.6        list(High… list(Condition=… list(each=rbind… "list(c('Tablet…                1                0                1                0
 7         7        2           1 Kay        Kay.1          list(Orde… list(Condition=… list(each=c('Co… list(c('all'))                  1                1                0                1
 8         8        3           1 Alter      Alter.1        list(Flue… list(Condition=… list(each=c('Co… list(c('all'))                  1                0                1                1
 9         9        3           1 Alter      Alter.2        list(Flue… list(Condition=… list(each=c('Co… list(c('all'))                  1                0                1                0
10        10        3           1 Alter      Alter.3        list(Flue… list(Condition=… list(each=c('Co… "list(c('Langua…                1                1                0                0
# ... with 80 more rows, and 39 more variables: study.table1.include <int>, study.table1.weird.split <int>, stat.vars <chr>, stat.type <chr>, stat.test <chr>, stat.params <chr>, stat.ncp <chr>,
#   stat.df <chr>, stat.p.value <chr>, orig.sample.nation <chr>, ori.sample.weird <int>, ori.study.figure2.include <int>, orig.stat.type <chr>, orig.test.alternative <chr>,
#   orig.test.sample <chr>, orig.stat.df1 <dbl>, orig.stat.df2 <int>, orig.stat.n1 <int>, orig.stat.n2 <int>, orig.stat.N <int>, orig.stat.estimate <dbl>, orig.stat.estimate1 <dbl>,
#   orig.stat.estimate2 <dbl>, orig.stat.ncp <dbl>, orig.stat.ncp.ciL <dbl>, orig.stat.ncp.ciU <dbl>, orig.stat.p.value <chr>, orig.ES.d <dbl>, orig.ES.d.ciL <dbl>, orig.ES.d.ciU <dbl>,
#   orig.ES.r <dbl>, orig.ES.r.ciL <dbl>, orig.ES.r.ciU <dbl>, orig.ES.cohensQ <dbl>, orig.ES.cohensQ.ciL <dbl>, orig.ES.cohensQ.ciU <dbl>, comments <chr>, study.description <chr>, cohensQ <int>
